<?xml version="1.0" encoding="UTF-8" standalone="no"?>
<svg
   xmlns:dc="http://purl.org/dc/elements/1.1/"
   xmlns:cc="http://creativecommons.org/ns#"
   xmlns:rdf="http://www.w3.org/1999/02/22-rdf-syntax-ns#"
   xmlns:svg="http://www.w3.org/2000/svg"
   xmlns="http://www.w3.org/2000/svg"
   xmlns:sodipodi="http://sodipodi.sourceforge.net/DTD/sodipodi-0.dtd"
   xmlns:inkscape="http://www.inkscape.org/namespaces/inkscape"
   version="1.1"
   x="0px"
   y="0px"
   viewBox="0 0 61.397636 51.594101"
   xml:space="preserve"
   id="svg3656"
   inkscape:version="0.91 r13725"
   sodipodi:docname="logo_inkscape.svg"
   width="61.397636"
   height="51.594101"
   inkscape:export-filename="/Users/kemenaran/Programmes/Codeurs/fondations/assets/logo_inkscape_new.png"
   inkscape:export-xdpi="300.5"
   inkscape:export-ydpi="300.5"><metadata
     id="metadata4054"><rdf:RDF><cc:Work
         rdf:about=""><dc:format>image/svg+xml</dc:format><dc:type
           rdf:resource="http://purl.org/dc/dcmitype/StillImage" /><dc:title /></cc:Work></rdf:RDF></metadata><defs
     id="defs4052" /><sodipodi:namedview
     pagecolor="#ffffff"
     bordercolor="#666666"
     borderopacity="1"
     objecttolerance="10"
     gridtolerance="10"
     guidetolerance="10"
     inkscape:pageopacity="0"
     inkscape:pageshadow="2"
     inkscape:window-width="1390"
     inkscape:window-height="855"
     id="namedview4050"
     showgrid="false"
     inkscape:zoom="5.6568542"
     inkscape:cx="29.934306"
     inkscape:cy="36.542863"
     inkscape:window-x="50"
     inkscape:window-y="1"
     inkscape:window-maximized="1"
     inkscape:current-layer="layer2"
     fit-margin-top="0"
     fit-margin-left="0"
     fit-margin-right="0"
     fit-margin-bottom="0" /><style
     type="text/css"
     id="style3658">
	.st0{display:none;}
	.st1{display:inline;}
	.st2{fill:none;stroke:#000000;stroke-width:2.8346;stroke-linecap:round;stroke-linejoin:round;stroke-miterlimit:10;}
	.st3{fill:none;stroke:#000000;stroke-width:1.4173;stroke-linecap:round;stroke-linejoin:round;stroke-miterlimit:10;}
	.st4{fill:none;stroke:#000000;stroke-width:1.3941;stroke-linecap:round;stroke-linejoin:round;stroke-miterlimit:10;}
	.st5{display:inline;fill:none;}
	.st6{display:inline;stroke:#000000;stroke-width:0.2835;stroke-miterlimit:10;}
	.st7{font-family:'Raleway-Thin';}
	.st8{font-size:11.642px;}
	.st9{stroke:#000000;stroke-width:0.2835;stroke-miterlimit:10;}
</style><g
     inkscape:groupmode="layer"
     id="layer3"
     inkscape:label="key"
     transform="translate(-14.301122,-21.20295)"><g
       id="g3700"><g
         id="g3702"><polyline
           class="st4"
           points="48.2,71.3 62.3,63.2 69.4,59.1 73,57 73.8,56.5 74.2,56.2 74.5,55.9 74.8,55.6 74.9,55.2 75,54.9     75,54.5   "
           id="polyline3704"
           style="fill:none;stroke:#000000;stroke-width:1.39409995;stroke-linecap:round;stroke-linejoin:round;stroke-miterlimit:10" /><polyline
           class="st4"
           points="15,54.5 15,54.9 15.1,55.4 15.3,55.8 15.7,56.1 16.1,56.5 16.6,56.8 17.6,57.4 21.8,59.8 30.2,64.6     38.5,69.4 40.6,70.6 41.6,71.2 42.1,71.5 42.7,71.8 43.4,71.9 44.1,72.1 44.8,72.1 45.6,72.1 46.3,72 47,71.8 47.6,71.6     48.2,71.3   "
           id="polyline3706"
           style="fill:none;stroke:#000000;stroke-width:1.39409995;stroke-linecap:round;stroke-linejoin:round;stroke-miterlimit:10" /><polyline
           class="st4"
           points="72.1,37.3 72,37.2 71.9,36.8 71.6,36.4 71.3,36.1 70.8,35.8 66.7,33.4 58.6,28.8 50.5,24.1     48.5,22.9 48,22.6 47.5,22.3 46.9,22.1 46.2,22 45.5,21.9 44.8,21.9 44.1,22 43.4,22.1 42.8,22.3 42.2,22.5 41.2,23.1   "
           id="polyline3708"
           style="fill:none;stroke:#000000;stroke-width:1.39409995;stroke-linecap:round;stroke-linejoin:round;stroke-miterlimit:10" /><line
           class="st4"
           x1="72.099998"
           y1="37.400002"
           x2="72.099998"
           y2="37.299999"
           id="line3710"
           style="fill:none;stroke:#000000;stroke-width:1.39409995;stroke-linecap:round;stroke-linejoin:round;stroke-miterlimit:10" /><polyline
           class="st4"
           points="19.8,35.5 19.3,35.8 18.8,36.1 18.5,36.5 18.2,36.8 18.1,37.2 18.1,37.4   "
           id="polyline3712"
           style="fill:none;stroke:#000000;stroke-width:1.39409995;stroke-linecap:round;stroke-linejoin:round;stroke-miterlimit:10" /><line
           class="st4"
           x1="15"
           y1="54.5"
           x2="18.1"
           y2="37.400002"
           id="line3714"
           style="fill:none;stroke:#000000;stroke-width:1.39409995;stroke-linecap:round;stroke-linejoin:round;stroke-miterlimit:10" /><line
           class="st4"
           x1="72.099998"
           y1="37.299999"
           x2="75"
           y2="54.5"
           id="line3716"
           style="fill:none;stroke:#000000;stroke-width:1.39409995;stroke-linecap:round;stroke-linejoin:round;stroke-miterlimit:10" /><line
           class="st4"
           x1="72.099998"
           y1="37.299999"
           x2="72.099998"
           y2="37.299999"
           id="line3718"
           style="fill:none;stroke:#000000;stroke-width:1.39409995;stroke-linecap:round;stroke-linejoin:round;stroke-miterlimit:10" /><polyline
           class="st4"
           points="19.8,35.5 22.4,34.6 25,33.6 27.5,32.4 30,31.2 32.4,29.8 34.7,28.3 37,26.7 39.1,25 41.2,23.1       "
           id="polyline3720"
           style="fill:none;stroke:#000000;stroke-width:1.39409995;stroke-linecap:round;stroke-linejoin:round;stroke-miterlimit:10" /></g></g></g><g
     class="st0"
     id="g3660"
     style="display:none"
     transform="translate(-14.301122,-21.20295)"><g
       class="st1"
       id="g3662"
       style="display:inline"><polyline
         class="st2"
         points="48.1,70.5 61.7,62.6 68.6,58.7 72,56.7 72.8,56.2 73.2,55.9 73.5,55.6 73.8,55.3 73.9,55 74,54.6     73.9,54.3   "
         id="polyline3664"
         style="fill:none;stroke:#000000;stroke-width:2.83459997;stroke-linecap:round;stroke-linejoin:round;stroke-miterlimit:10" /><polyline
         class="st2"
         points="16,54.2 16,54.7 16.1,55.1 16.3,55.5 16.7,55.8 17.1,56.2 17.6,56.5 18.6,57 22.6,59.4 30.7,64     38.7,68.7 40.7,69.8 41.7,70.4 42.2,70.7 42.8,70.9 43.5,71.1 44.2,71.2 44.9,71.3 45.6,71.2 46.3,71.1 46.9,71 47.5,70.8     48.1,70.5   "
         id="polyline3666"
         style="fill:none;stroke:#000000;stroke-width:2.83459997;stroke-linecap:round;stroke-linejoin:round;stroke-miterlimit:10" /><polyline
         class="st2"
         points="70.5,39.1 70.8,38.7 71,38.3 71.1,37.9 71.1,37.6 71,37.2 70.7,36.8 70.4,36.5 69.9,36.2 66,33.9     58.2,29.4 50.4,24.9 48.4,23.7 47.9,23.5 47.4,23.2 46.8,23 46.2,22.8 45.5,22.8 44.8,22.7 44.1,22.8 43.5,22.9 42.9,23.1     42.3,23.4 41.4,24   "
         id="polyline3668"
         style="fill:none;stroke:#000000;stroke-width:2.83459997;stroke-linecap:round;stroke-linejoin:round;stroke-miterlimit:10" /><polyline
         class="st2"
         points="20.7,35.9 20.2,36.2 19.7,36.5 19.4,36.8 19.1,37.2 19,37.6 19,38 19.1,38.3 19.3,38.7 19.6,39.1     20.1,39.4 21,39.9 22.9,41 30.6,45.4 38.2,49.8 42,52.1 42.5,52.3 43,52.6 43.7,52.7 44.3,52.8 45,52.9 45.6,52.9 46.3,52.8     46.9,52.6   "
         id="polyline3670"
         style="fill:none;stroke:#000000;stroke-width:2.83459997;stroke-linecap:round;stroke-linejoin:round;stroke-miterlimit:10" /><line
         class="st2"
         x1="16"
         y1="54.200001"
         x2="19"
         y2="37.599998"
         id="line3672"
         style="fill:none;stroke:#000000;stroke-width:2.83459997;stroke-linecap:round;stroke-linejoin:round;stroke-miterlimit:10" /><line
         class="st2"
         x1="71.099998"
         y1="37.599998"
         x2="73.900002"
         y2="54.299999"
         id="line3674"
         style="fill:none;stroke:#000000;stroke-width:2.83459997;stroke-linecap:round;stroke-linejoin:round;stroke-miterlimit:10" /><polyline
         class="st2"
         points="46.9,52.6 49.5,51.8 52.1,50.9 54.7,49.8 57.1,48.6 59.5,47.3 61.9,45.9 64.2,44.3 66.4,42.7     68.5,40.9 70.5,39.1   "
         id="polyline3676"
         style="fill:none;stroke:#000000;stroke-width:2.83459997;stroke-linecap:round;stroke-linejoin:round;stroke-miterlimit:10" /><polyline
         class="st2"
         points="20.7,35.9 23.2,35 25.7,34.1 28.1,32.9 30.5,31.7 32.8,30.4 35.1,28.9 37.2,27.4 39.3,25.7 41.4,24       "
         id="polyline3678"
         style="fill:none;stroke:#000000;stroke-width:2.83459997;stroke-linecap:round;stroke-linejoin:round;stroke-miterlimit:10" /></g></g><g
     id="g3680"
     transform="translate(-14.301122,-21.20295)"><g
       id="g3682"><polyline
         class="st3"
         points="48.1,70.5 61.7,62.6 68.6,58.7 72,56.7 72.8,56.2 73.2,55.9 73.5,55.6 73.8,55.3 73.9,55 74,54.6     73.9,54.3   "
         id="polyline3684"
         style="fill:none;stroke:#000000;stroke-width:1.41729999;stroke-linecap:round;stroke-linejoin:round;stroke-miterlimit:10" /><polyline
         class="st3"
         points="16,54.2 16,54.7 16.1,55.1 16.3,55.5 16.7,55.8 17.1,56.2 17.6,56.5 18.6,57 22.6,59.4 30.7,64     38.7,68.7 40.7,69.8 41.7,70.4 42.2,70.7 42.8,70.9 43.5,71.1 44.2,71.2 44.9,71.3 45.6,71.2 46.3,71.1 46.9,71 47.5,70.8     48.1,70.5   "
         id="polyline3686"
         style="fill:none;stroke:#000000;stroke-width:1.41729999;stroke-linecap:round;stroke-linejoin:round;stroke-miterlimit:10" /><polyline
         class="st3"
         points="70.5,39.1 70.8,38.7 71,38.3 71.1,37.9 71.1,37.6 71,37.2 70.7,36.8 70.4,36.5 69.9,36.2 66,33.9     58.2,29.4 50.4,24.9 48.4,23.7 47.9,23.5 47.4,23.2 46.8,23 46.2,22.8 45.5,22.8 44.8,22.7 44.1,22.8 43.5,22.9 42.9,23.1     42.3,23.4 41.4,24   "
         id="polyline3688"
         style="fill:none;stroke:#000000;stroke-width:1.41729999;stroke-linecap:round;stroke-linejoin:round;stroke-miterlimit:10" /><polyline
         class="st3"
         points="20.7,35.9 20.2,36.2 19.7,36.5 19.4,36.8 19.1,37.2 19,37.6 19,38 19.1,38.3 19.3,38.7 19.6,39.1     20.1,39.4 21,39.9 22.9,41 30.6,45.4 38.2,49.8 42,52.1 42.5,52.3 43,52.6 43.7,52.7 44.3,52.8 45,52.9 45.6,52.9 46.3,52.8     46.9,52.6   "
         id="polyline3690"
         style="fill:none;stroke:#000000;stroke-width:1.41729999;stroke-linecap:round;stroke-linejoin:round;stroke-miterlimit:10" /><line
         class="st3"
         x1="16"
         y1="54.200001"
         x2="19"
         y2="37.599998"
         id="line3692"
         style="fill:none;stroke:#000000;stroke-width:1.41729999;stroke-linecap:round;stroke-linejoin:round;stroke-miterlimit:10" /><line
         class="st3"
         x1="71.099998"
         y1="37.599998"
         x2="73.900002"
         y2="54.299999"
         id="line3694"
         style="fill:none;stroke:#000000;stroke-width:1.41729999;stroke-linecap:round;stroke-linejoin:round;stroke-miterlimit:10" /><polyline
         class="st3"
         points="46.9,52.6 49.5,51.8 52.1,50.9 54.7,49.8 57.1,48.6 59.5,47.3 61.9,45.9 64.2,44.3 66.4,42.7     68.5,40.9 70.5,39.1   "
         id="polyline3696"
         style="fill:none;stroke:#000000;stroke-width:1.41729999;stroke-linecap:round;stroke-linejoin:round;stroke-miterlimit:10" /><polyline
         class="st3"
         points="20.7,35.9 23.2,35 25.7,34.1 28.1,32.9 30.5,31.7 32.8,30.4 35.1,28.9 37.2,27.4 39.3,25.7 41.4,24       "
         id="polyline3698"
         style="fill:none;stroke:#000000;stroke-width:1.41729999;stroke-linecap:round;stroke-linejoin:round;stroke-miterlimit:10" /></g></g><g
     class="st0"
     id="g3722"
     style="display:none"
     transform="translate(-14.301122,-21.20295)"><polygon
       class="st5"
       points="25.6,38 35.9,32.8 45.5,38.5 35.1,43.8 "
       id="polygon3724"
       style="display:inline;fill:none" /><text
       transform="matrix(1.1199,-0.5663,0.857,0.5153,32.8454,42.3439)"
       class="st6 st7 st8"
       id="text3726"
       style="font-size:11.6420002px;font-family:Raleway-Thin;display:inline;stroke:#000000;stroke-width:0.28349999;stroke-miterlimit:10">Z</text>
</g><g
     class="st0"
     id="g3728"
     style="display:none"
     transform="translate(-14.301122,-21.20295)"><polygon
       class="st5"
       points="25,38.3 35.3,33 44.8,38.8 34.5,44 "
       id="polygon3730"
       style="display:inline;fill:none" /><text
       transform="matrix(1.1199,-0.5663,0.857,0.5153,32.2204,42.5939)"
       class="st6 st7 st8"
       id="text3732"
       style="font-size:11.6420002px;font-family:Raleway-Thin;display:inline;stroke:#000000;stroke-width:0.28349999;stroke-miterlimit:10">Y</text>
</g><g
     class="st0"
     id="g3734"
     style="display:none"
     transform="translate(-14.301122,-21.20295)"><polygon
       class="st5"
       points="25,38.3 35.3,33 44.8,38.8 34.5,44 "
       id="polygon3736"
       style="display:inline;fill:none" /><text
       transform="matrix(1.1199,-0.5663,0.857,0.5153,32.2204,42.5939)"
       class="st6 st7 st8"
       id="text3738"
       style="font-size:11.6420002px;font-family:Raleway-Thin;display:inline;stroke:#000000;stroke-width:0.28349999;stroke-miterlimit:10">X</text>
</g><g
     class="st0"
     id="g3740"
     style="display:none"
     transform="translate(-14.301122,-21.20295)"><polygon
       class="st5"
       points="21.8,36.3 45.9,14.3 60.7,23.5 36.5,45.6 "
       id="polygon3742"
       style="display:inline;fill:none" /><text
       transform="matrix(1.1199,-0.5663,0.857,0.5153,32.0574,42.5571)"
       class="st6 st7 st8"
       id="text3744"
       style="font-size:11.6420002px;font-family:Raleway-Thin;display:inline;stroke:#000000;stroke-width:0.28349999;stroke-miterlimit:10">W</text>
</g><g
     class="st0"
     id="g3746"
     style="display:none"
     transform="translate(-14.301122,-21.20295)"><polygon
       class="st5"
       points="25,38.3 35.3,33 44.8,38.8 34.5,44 "
       id="polygon3748"
       style="display:inline;fill:none" /><text
       transform="matrix(1.1199,-0.5663,0.857,0.5153,32.2204,42.5939)"
       class="st6 st7 st8"
       id="text3750"
       style="font-size:11.6420002px;font-family:Raleway-Thin;display:inline;stroke:#000000;stroke-width:0.28349999;stroke-miterlimit:10">V</text>
</g><g
     class="st0"
     id="g3752"
     style="display:none"
     transform="translate(-14.301122,-21.20295)"><polygon
       class="st5"
       points="25,38.3 35.3,33 44.8,38.8 34.5,44 "
       id="polygon3754"
       style="display:inline;fill:none" /><text
       transform="matrix(1.1199,-0.5663,0.857,0.5153,32.2204,42.5939)"
       class="st6 st7 st8"
       id="text3756"
       style="font-size:11.6420002px;font-family:Raleway-Thin;display:inline;stroke:#000000;stroke-width:0.28349999;stroke-miterlimit:10">U</text>
</g><g
     class="st0"
     id="g3758"
     style="display:none"
     transform="translate(-14.301122,-21.20295)"><polygon
       class="st5"
       points="25.7,38 36,32.8 45.6,38.5 35.3,43.7 "
       id="polygon3760"
       style="display:inline;fill:none" /><text
       transform="matrix(1.1199,-0.5663,0.857,0.5153,32.9495,42.3231)"
       class="st6 st7 st8"
       id="text3762"
       style="font-size:11.6420002px;font-family:Raleway-Thin;display:inline;stroke:#000000;stroke-width:0.28349999;stroke-miterlimit:10">T</text>
</g><g
     class="st0"
     id="g3764"
     style="display:none"
     transform="translate(-14.301122,-21.20295)"><polygon
       class="st5"
       points="25,38.3 35.3,33 44.8,38.8 34.5,44 "
       id="polygon3766"
       style="display:inline;fill:none" /><text
       transform="matrix(1.1199,-0.5663,0.857,0.5153,32.2204,42.5939)"
       class="st6 st7 st8"
       id="text3768"
       style="font-size:11.6420002px;font-family:Raleway-Thin;display:inline;stroke:#000000;stroke-width:0.28349999;stroke-miterlimit:10">S</text>
</g><g
     class="st0"
     id="g3770"
     style="display:none"
     transform="translate(-14.301122,-21.20295)"><polygon
       class="st5"
       points="25,38.3 35.3,33 44.8,38.8 34.5,44 "
       id="polygon3772"
       style="display:inline;fill:none" /><text
       transform="matrix(1.1199,-0.5663,0.857,0.5153,32.2204,42.5939)"
       class="st6 st7 st8"
       id="text3774"
       style="font-size:11.6420002px;font-family:Raleway-Thin;display:inline;stroke:#000000;stroke-width:0.28349999;stroke-miterlimit:10">R</text>
</g><g
     class="st0"
     id="g3776"
     style="display:none"
     transform="translate(-14.301122,-21.20295)"><polygon
       class="st5"
       points="25,38.3 35.3,33 44.8,38.8 34.5,44 "
       id="polygon3778"
       style="display:inline;fill:none" /><text
       transform="matrix(1.1199,-0.5663,0.857,0.5153,32.2204,42.5939)"
       class="st6 st7 st8"
       id="text3780"
       style="font-size:11.6420002px;font-family:Raleway-Thin;display:inline;stroke:#000000;stroke-width:0.28349999;stroke-miterlimit:10">Q</text>
</g><g
     class="st0"
     id="g3782"
     style="display:none"
     transform="translate(-14.301122,-21.20295)"><polygon
       class="st5"
       points="25,38.3 35.3,33 44.8,38.8 34.5,44 "
       id="polygon3784"
       style="display:inline;fill:none" /><text
       transform="matrix(1.1199,-0.5663,0.857,0.5153,32.2204,42.5939)"
       class="st6 st7 st8"
       id="text3786"
       style="font-size:11.6420002px;font-family:Raleway-Thin;display:inline;stroke:#000000;stroke-width:0.28349999;stroke-miterlimit:10">P</text>
</g><g
     class="st0"
     id="g3788"
     style="display:none"
     transform="translate(-14.301122,-21.20295)"><polygon
       class="st5"
       points="25,38.3 35.3,33 44.8,38.8 34.5,44 "
       id="polygon3790"
       style="display:inline;fill:none" /><text
       transform="matrix(1.1199,-0.5663,0.857,0.5153,32.2204,42.5939)"
       class="st6 st7 st8"
       id="text3792"
       style="font-size:11.6420002px;font-family:Raleway-Thin;display:inline;stroke:#000000;stroke-width:0.28349999;stroke-miterlimit:10">O</text>
</g><g
     class="st0"
     id="g3794"
     style="display:none"
     transform="translate(-14.301122,-21.20295)"><polygon
       class="st5"
       points="26.2,39 36.5,33.8 46.1,39.5 35.7,44.8 "
       id="polygon3796"
       style="display:inline;fill:none" /><text
       transform="matrix(1.1199,-0.5663,0.857,0.5153,33.4287,43.3377)"
       class="st6 st7 st8"
       id="text3798"
       style="font-size:11.6420002px;font-family:Raleway-Thin;display:inline;stroke:#000000;stroke-width:0.28349999;stroke-miterlimit:10">Ñ</text>
</g><g
     class="st0"
     id="g3800"
     style="display:none"
     transform="translate(-14.301122,-21.20295)"><polygon
       class="st5"
       points="25,38.3 35.3,33 44.8,38.8 34.5,44 "
       id="polygon3802"
       style="display:inline;fill:none" /><text
       transform="matrix(1.1199,-0.5663,0.857,0.5153,32.2204,42.5939)"
       class="st6 st7 st8"
       id="text3804"
       style="font-size:11.6420002px;font-family:Raleway-Thin;display:inline;stroke:#000000;stroke-width:0.28349999;stroke-miterlimit:10">N</text>
</g><g
     class="st0"
     id="g3806"
     style="display:none"
     transform="translate(-14.301122,-21.20295)"><polygon
       class="st5"
       points="25.7,38.7 36.6,32.4 46.2,38.2 35.2,44.5 "
       id="polygon3808"
       style="display:inline;fill:none" /><text
       transform="matrix(1.1199,-0.5663,0.857,0.5153,32.241,42.6463)"
       class="st6 st7 st8"
       id="text3810"
       style="font-size:11.6420002px;font-family:Raleway-Thin;display:inline;stroke:#000000;stroke-width:0.28349999;stroke-miterlimit:10">M</text>
</g><g
     class="st0"
     id="g3812"
     style="display:none"
     transform="translate(-14.301122,-21.20295)"><polygon
       class="st5"
       points="25.1,38.4 35.4,33.2 45,38.9 34.7,44.2 "
       id="polygon3814"
       style="display:inline;fill:none" /><text
       transform="matrix(1.1199,-0.5663,0.857,0.5153,32.3766,42.7397)"
       class="st6 st7 st8"
       id="text3816"
       style="font-size:11.6420002px;font-family:Raleway-Thin;display:inline;stroke:#000000;stroke-width:0.28349999;stroke-miterlimit:10">L</text>
</g><g
     class="st0"
     id="g3818"
     style="display:none"
     transform="translate(-14.301122,-21.20295)"><polygon
       class="st5"
       points="25.1,38.4 35.4,33.2 45,38.9 34.7,44.2 "
       id="polygon3820"
       style="display:inline;fill:none" /><text
       transform="matrix(1.1199,-0.5663,0.857,0.5153,32.3766,42.7397)"
       class="st6 st7 st8"
       id="text3822"
       style="font-size:11.6420002px;font-family:Raleway-Thin;display:inline;stroke:#000000;stroke-width:0.28349999;stroke-miterlimit:10">K</text>
</g><g
     class="st0"
     id="g3824"
     style="display:none"
     transform="translate(-14.301122,-21.20295)"><polygon
       class="st5"
       points="26.9,37.4 37.2,32.2 46.8,38 36.5,43.2 "
       id="polygon3826"
       style="display:inline;fill:none" /><text
       transform="matrix(1.1199,-0.5663,0.857,0.5153,34.1846,41.7707)"
       class="st6 st7 st8"
       id="text3828"
       style="font-size:11.6420002px;font-family:Raleway-Thin;display:inline;stroke:#000000;stroke-width:0.28349999;stroke-miterlimit:10">J</text>
</g><g
     class="st0"
     id="g3830"
     style="display:none"
     transform="translate(-14.301122,-21.20295)"><polygon
       class="st5"
       points="28.4,36.9 38.7,31.6 48.3,37.4 37.9,42.6 "
       id="polygon3832"
       style="display:inline;fill:none" /><text
       transform="matrix(1.1199,-0.5663,0.857,0.5153,35.6279,41.1763)"
       class="st6 st7 st8"
       id="text3834"
       style="font-size:11.6420002px;font-family:Raleway-Thin;display:inline;stroke:#000000;stroke-width:0.28349999;stroke-miterlimit:10">I</text>
</g><g
     class="st0"
     id="g3836"
     style="display:none"
     transform="translate(-14.301122,-21.20295)"><polygon
       class="st5"
       points="25.1,38.4 35.4,33.2 45,38.9 34.7,44.2 "
       id="polygon3838"
       style="display:inline;fill:none" /><text
       transform="matrix(1.1199,-0.5663,0.857,0.5153,32.3766,42.7397)"
       class="st6 st7 st8"
       id="text3840"
       style="font-size:11.6420002px;font-family:Raleway-Thin;display:inline;stroke:#000000;stroke-width:0.28349999;stroke-miterlimit:10">H</text>
</g><g
     class="st0"
     id="g3842"
     style="display:none"
     transform="translate(-14.301122,-21.20295)"><polygon
       class="st5"
       points="25.1,38.4 35.4,33.2 45,38.9 34.7,44.2 "
       id="polygon3844"
       style="display:inline;fill:none" /><text
       transform="matrix(1.1199,-0.5663,0.857,0.5153,32.3766,42.7397)"
       class="st6 st7 st8"
       id="text3846"
       style="font-size:11.6420002px;font-family:Raleway-Thin;display:inline;stroke:#000000;stroke-width:0.28349999;stroke-miterlimit:10">G</text>
</g><g
     class="st0"
     id="g3848"
     style="display:none"
     transform="translate(-14.301122,-21.20295)"><polygon
       class="st5"
       points="25.1,38.4 35.4,33.2 45,38.9 34.7,44.2 "
       id="polygon3850"
       style="display:inline;fill:none" /><text
       transform="matrix(1.1199,-0.5663,0.857,0.5153,32.3766,42.7397)"
       class="st6 st7 st8"
       id="text3852"
       style="font-size:11.6420002px;font-family:Raleway-Thin;display:inline;stroke:#000000;stroke-width:0.28349999;stroke-miterlimit:10">F</text>
</g><g
     class="st0"
     id="g3854"
     style="display:none"
     transform="translate(-14.301122,-21.20295)"><polygon
       class="st5"
       points="25.1,38.4 35.4,33.2 45,38.9 34.7,44.2 "
       id="polygon3856"
       style="display:inline;fill:none" /><text
       transform="matrix(1.1199,-0.5663,0.857,0.5153,32.3766,42.7397)"
       class="st6 st7 st8"
       id="text3858"
       style="font-size:11.6420002px;font-family:Raleway-Thin;display:inline;stroke:#000000;stroke-width:0.28349999;stroke-miterlimit:10">E</text>
</g><g
     class="st0"
     id="g3860"
     style="display:none"
     transform="translate(-14.301122,-21.20295)"><polygon
       class="st5"
       points="25.1,38.4 35.4,33.2 45,38.9 34.7,44.2 "
       id="polygon3862"
       style="display:inline;fill:none" /><text
       transform="matrix(1.1199,-0.5663,0.857,0.5153,32.3766,42.7397)"
       class="st6 st7 st8"
       id="text3864"
       style="font-size:11.6420002px;font-family:Raleway-Thin;display:inline;stroke:#000000;stroke-width:0.28349999;stroke-miterlimit:10">D</text>
</g><g
     class="st0"
     id="g3866"
     style="display:none"
     transform="translate(-14.301122,-21.20295)"><polygon
       class="st5"
       points="25.1,38.4 35.4,33.2 45,38.9 34.7,44.2 "
       id="polygon3868"
       style="display:inline;fill:none" /><text
       transform="matrix(1.1199,-0.5663,0.857,0.5153,32.3766,42.7397)"
       class="st6 st7 st8"
       id="text3870"
       style="font-size:11.6420002px;font-family:Raleway-Thin;display:inline;stroke:#000000;stroke-width:0.28349999;stroke-miterlimit:10">C</text>
</g><g
     class="st0"
     id="g3872"
     style="display:none"
     transform="translate(-14.301122,-21.20295)"><polygon
       class="st5"
       points="25.1,38.1 35.4,32.9 45,38.7 34.7,43.9 "
       id="polygon3874"
       style="display:inline;fill:none" /><text
       transform="matrix(1.1199,-0.5663,0.857,0.5153,32.3766,42.4481)"
       class="st6 st7 st8"
       id="text3876"
       style="font-size:11.6420002px;font-family:Raleway-Thin;display:inline;stroke:#000000;stroke-width:0.28349999;stroke-miterlimit:10">B</text>
</g><g
     class="st0"
     id="g3878"
     style="display:none"
     transform="translate(-14.301122,-21.20295)"><polygon
       class="st5"
       points="25.1,38.1 35.4,32.9 45,38.7 34.7,43.9 "
       id="polygon3880"
       style="display:inline;fill:none" /><text
       transform="matrix(1.1199,-0.5663,0.857,0.5153,32.3766,42.4481)"
       class="st6 st7 st8"
       id="text3882"
       style="font-size:11.6420002px;font-family:Raleway-Thin;display:inline;stroke:#000000;stroke-width:0.28349999;stroke-miterlimit:10">A</text>
</g><g
     class="st0"
     id="g3884"
     style="display:none"
     transform="translate(-14.301122,-21.20295)"><g
       class="st1"
       id="g3886"
       style="display:inline"><path
         class="st9"
         d="m 33.2,34.6 -7,3.5 -0.2,-0.1 7.3,-3.7 0.2,0.1 -0.4,7.6 7,-3.5 0.2,0.1 -7.3,3.7 -0.2,-0.1 0.4,-7.6 z"
         id="path3888"
         inkscape:connector-curvature="0"
         style="stroke:#000000;stroke-width:0.28349999;stroke-miterlimit:10" /></g></g><g
     class="st0"
     id="g3890"
     style="display:none"
     transform="translate(-14.301122,-21.20295)"><g
       class="st1"
       id="g3892"
       style="display:inline"><path
         class="st9"
         d="m 25.7,38 7.7,0.7 -0.5,-4.3 0.3,-0.2 0.6,4.5 2.7,1.6 -0.3,0.1 -2.8,-1.7 -8.1,-0.7 0.4,0 z"
         id="path3894"
         inkscape:connector-curvature="0"
         style="stroke:#000000;stroke-width:0.28349999;stroke-miterlimit:10" /></g></g><g
     class="st0"
     id="g3896"
     style="display:none"
     transform="translate(-14.301122,-21.20295)"><g
       class="st1"
       id="g3898"
       style="display:inline"><path
         class="st9"
         d="m 26.3,37.8 7,0.3 0.1,-3.9 0.3,-0.2 -0.1,4 7.1,0.3 -0.3,0.2 -6.8,-0.2 -0.2,3.7 -0.3,0.2 0.1,-3.9 -7.3,-0.3 0.4,-0.2 z"
         id="path3900"
         inkscape:connector-curvature="0"
         style="stroke:#000000;stroke-width:0.28349999;stroke-miterlimit:10" /></g></g><g
     class="st0"
     id="g3902"
     style="display:none"
     transform="translate(-14.301122,-21.20295)"><g
       class="st1"
       id="g3904"
       style="display:inline"><path
         class="st9"
         d="m 30.3,35.7 0.3,-0.1 4.2,0.8 -1.2,-2.4 0.3,-0.1 1.2,2.6 6.1,1.2 -2.9,-6.1 0.3,-0.1 3.1,6.3 -0.3,0.1 -6.1,-1.2 1.7,3.4 -0.3,0.1 L 25.5,38 25.8,37.9 36.5,40 34.8,36.6 30.3,35.7 Z"
         id="path3906"
         inkscape:connector-curvature="0"
         style="stroke:#000000;stroke-width:0.28349999;stroke-miterlimit:10" /></g></g><g
     class="st0"
     id="g3908"
     style="display:none"
     transform="translate(-14.301122,-21.20295)"><g
       class="st1"
       id="g3910"
       style="display:inline"><path
         class="st9"
         d="M 25.8,38 36.5,40.1 33.6,34 33.9,33.9 37,40.2 36.7,40.3 25.6,38.1 25.8,38 Z"
         id="path3912"
         inkscape:connector-curvature="0"
         style="stroke:#000000;stroke-width:0.28349999;stroke-miterlimit:10" /></g></g><g
     class="st0"
     id="g3914"
     style="display:none"
     transform="translate(-14.301122,-21.20295)"><g
       class="st1"
       id="g3916"
       style="display:inline"><path
         class="st9"
         d="m 37,36.4 -3.6,-2.2 0.3,-0.1 3.6,2.2 c 1.9,1.1 2.7,2.6 -0.2,4.1 -2.9,1.5 -5.6,0.8 -7.4,-0.2 L 26,37.9 26.3,37.8 29.9,40 c 1.7,1 4.2,1.6 6.9,0.3 2.8,-1.5 1.8,-2.9 0.2,-3.9 z"
         id="path3918"
         inkscape:connector-curvature="0"
         style="stroke:#000000;stroke-width:0.28349999;stroke-miterlimit:10" /></g></g><g
     class="st0"
     id="g3920"
     style="display:none"
     transform="translate(-14.301122,-21.20295)"><g
       class="st1"
       id="g3922"
       style="display:inline"><path
         class="st9"
         d="m 33.5,34.4 -3.5,1.8 6.9,4.1 -0.3,0.1 -6.9,-4.1 -3.5,1.8 -0.3,-0.1 7.4,-3.7 0.2,0.1 z"
         id="path3924"
         inkscape:connector-curvature="0"
         style="stroke:#000000;stroke-width:0.28349999;stroke-miterlimit:10" /></g></g><g
     class="st0"
     id="g3926"
     style="display:none"
     transform="translate(-14.301122,-21.20295)"><g
       class="st1"
       id="g3928"
       style="display:inline"><path
         class="st9"
         d="m 31.9,41.4 c 1.5,0 3.1,-0.4 4.3,-1 1.4,-0.7 2.7,-1.9 1.5,-2.6 -1.4,-0.8 -3.5,0 -4.8,0.7 -1.7,0.9 -3.7,1.4 -5.1,0.5 -1.4,-0.8 -0.1,-2 1.4,-2.7 1.5,-0.8 2.6,-1 3.9,-0.9 l -0.2,0.2 c -1.3,-0.1 -2.5,0.3 -3.5,0.8 -1.4,0.7 -2.5,1.7 -1.3,2.5 1.4,0.8 3.2,0.2 4.7,-0.5 1.7,-0.8 3.9,-1.5 5.3,-0.7 1.4,0.8 -0.1,2.1 -1.5,2.9 -1.5,0.8 -3.2,1 -4.5,1.1 l -0.2,-0.3 z"
         id="path3930"
         inkscape:connector-curvature="0"
         style="stroke:#000000;stroke-width:0.28349999;stroke-miterlimit:10" /></g></g><g
     class="st0"
     id="g3932"
     style="display:none"
     transform="translate(-14.301122,-21.20295)"><g
       class="st1"
       id="g3934"
       style="display:inline"><path
         class="st9"
         d="M 33.3,42.1 26.2,37.8 30,35.9 c 1.5,-0.8 3.7,-0.7 4.8,0 1.1,0.7 1.1,1.7 -0.2,2.5 l 5.1,0.5 -0.4,0.1 -5.1,-0.5 -3.4,1.7 2.8,1.7 -0.3,0.2 z m -2.8,-2 3.6,-1.8 c 1.4,-0.7 1.3,-1.7 0.3,-2.3 -1,-0.6 -3,-0.6 -4.3,0 l -3.5,1.8 3.9,2.3 z"
         id="path3936"
         inkscape:connector-curvature="0"
         style="stroke:#000000;stroke-width:0.28349999;stroke-miterlimit:10" /></g></g><g
     class="st0"
     id="g3938"
     style="display:none"
     transform="translate(-14.301122,-21.20295)"><g
       class="st1"
       id="g3940"
       style="display:inline"><path
         class="st9"
         d="M 29.4,40.1 C 27.5,39 27.7,37 30.1,35.8 c 2.6,-1.3 6.1,-1.1 7.9,0 1,0.6 1.4,1.4 1.2,2.3 l 1.8,0.1 -0.3,0.2 -1.5,-0.1 c -0.2,0.7 -0.9,1.3 -1.9,1.9 -2.6,1.1 -6.1,1 -7.9,-0.1 z m 7.5,-1.9 0.3,-0.2 1.7,0.1 c 0.1,-0.9 -0.3,-1.6 -1.2,-2.2 -1.8,-1.1 -5.1,-1.2 -7.4,0 -2.4,1.2 -2.3,3.1 -0.7,4.1 1.8,1.1 5.2,1.1 7.4,0 1,-0.5 1.6,-1.1 1.8,-1.7 l -1.9,-0.1 z"
         id="path3942"
         inkscape:connector-curvature="0"
         style="stroke:#000000;stroke-width:0.28349999;stroke-miterlimit:10" /></g></g><g
     class="st0"
     id="g3944"
     style="display:none"
     transform="translate(-14.301122,-21.20295)"><g
       class="st1"
       id="g3946"
       style="display:inline"><path
         class="st9"
         d="M 33.3,42.1 26.2,37.8 30,35.9 c 1.5,-0.8 3.7,-0.7 4.8,0 1.1,0.7 1.1,1.8 -0.4,2.6 l -3.6,1.8 2.8,1.7 -0.3,0.1 z m -2.8,-2 3.6,-1.8 c 1.4,-0.7 1.3,-1.7 0.3,-2.3 -1,-0.6 -3,-0.6 -4.3,0 l -3.5,1.8 3.9,2.3 z"
         id="path3948"
         inkscape:connector-curvature="0"
         style="stroke:#000000;stroke-width:0.28349999;stroke-miterlimit:10" /></g></g><g
     class="st0"
     id="g3950"
     style="display:none"
     transform="translate(-14.301122,-21.20295)"><g
       class="st1"
       id="g3952"
       style="display:inline"><path
         class="st9"
         d="M 29.4,40.1 C 27.5,39 27.7,37 30.1,35.8 c 2.6,-1.3 6.1,-1.1 7.9,0 1.9,1.1 1.7,3.1 -0.7,4.3 -2.6,1.2 -6.1,1.1 -7.9,0 z M 37.1,40 c 2.4,-1.2 2.3,-3.1 0.7,-4.1 -1.8,-1.1 -5.1,-1.2 -7.4,0 -2.5,1.2 -2.4,3.1 -0.8,4.1 1.9,1 5.1,1.2 7.5,0 z"
         id="path3954"
         inkscape:connector-curvature="0"
         style="stroke:#000000;stroke-width:0.28349999;stroke-miterlimit:10" /></g></g><g
     class="st0"
     id="g3956"
     style="display:none"
     transform="translate(-14.301122,-21.20295)"><g
       class="st1"
       id="g3958"
       style="display:inline"><path
         class="st9"
         d="m 28,38.7 6.7,4 -0.3,0.1 -7.1,-4.3 0.2,-0.1 L 41.4,39 34.6,34.9 34.9,34.8 42,39 41.7,39.2 28,38.7 Z m 0.9,-2.5 c -0.6,0.3 0,0.7 0,0.7 l -0.3,0.1 0,0 c 0,0 -0.8,-0.5 0.1,-0.9 0.6,-0.3 1.6,-0.1 2.3,-0.5 0.6,-0.3 0.1,-0.6 0.1,-0.6 l 0.3,-0.1 c 0,0 0.7,0.5 -0.2,0.9 -0.9,0.4 -1.9,0.2 -2.3,0.4 z"
         id="path3960"
         inkscape:connector-curvature="0"
         style="stroke:#000000;stroke-width:0.28349999;stroke-miterlimit:10" /></g></g><g
     class="st0"
     id="g3962"
     style="display:none"
     transform="translate(-14.301122,-21.20295)"><g
       class="st1"
       id="g3964"
       style="display:inline"><path
         class="st9"
         d="m 26.8,37.9 6.7,4 -0.3,0.1 -7.1,-4.3 0.2,-0.1 13.9,0.5 -6.8,-4.1 0.3,-0.1 7.1,4.3 -0.3,0.2 -13.7,-0.5 z"
         id="path3966"
         inkscape:connector-curvature="0"
         style="stroke:#000000;stroke-width:0.28349999;stroke-miterlimit:10" /></g></g><g
     class="st0"
     id="g3968"
     style="display:none"
     transform="translate(-14.301122,-21.20295)"><g
       class="st1"
       id="g3970"
       style="display:inline"><path
         class="st9"
         d="m 41.9,37.7 -6.6,-4 1.1,5.2 -0.2,0.1 -9.3,-1 6.6,4 -0.3,0.1 -7.1,-4.3 0.2,-0.1 9.7,1.1 -1.2,-5.4 0.2,-0.1 7.1,4.3 -0.2,0.1 z"
         id="path3972"
         inkscape:connector-curvature="0"
         style="stroke:#000000;stroke-width:0.28349999;stroke-miterlimit:10" /></g></g><g
     class="st0"
     id="g3974"
     style="display:none"
     transform="translate(-14.301122,-21.20295)"><g
       class="st1"
       id="g3976"
       style="display:inline"><path
         class="st9"
         d="m 33.4,42.2 -7.1,-4.2 0.3,-0.1 6.9,4.1 5.8,-2.9 0.2,0.1 -6.1,3 z"
         id="path3978"
         inkscape:connector-curvature="0"
         style="stroke:#000000;stroke-width:0.28349999;stroke-miterlimit:10" /></g></g><g
     class="st0"
     id="g3980"
     style="display:none"
     transform="translate(-14.301122,-21.20295)"><g
       class="st1"
       id="g3982"
       style="display:inline"><path
         class="st9"
         d="m 33.4,42.2 -7.1,-4.2 0.3,-0.1 4.6,2.8 1.9,-6 0.4,-0.2 -1.3,4.2 8,0.3 -0.4,0 -7.7,-0.3 -0.6,2.1 2.2,1.3 -0.3,0.1 z"
         id="path3984"
         inkscape:connector-curvature="0"
         style="stroke:#000000;stroke-width:0.28349999;stroke-miterlimit:10" /></g></g><g
     class="st0"
     id="g3986"
     style="display:none"
     transform="translate(-14.301122,-21.20295)"><g
       class="st1"
       id="g3988"
       style="display:inline"><path
         class="st9"
         d="m 33.8,41.4 c 0.8,-0.1 1.5,-0.3 2.3,-0.7 2.2,-1.1 1.2,-2 -0.9,-3.3 l -3.6,-2.2 0.3,-0.1 3.6,2.2 c 2.2,1.3 3.3,2.3 0.9,3.5 -0.8,0.4 -1.6,0.6 -2.4,0.8 l -0.2,-0.2 z"
         id="path3990"
         inkscape:connector-curvature="0"
         style="stroke:#000000;stroke-width:0.28349999;stroke-miterlimit:10" /></g></g><g
     class="st0"
     id="g3992"
     style="display:none"
     transform="translate(-14.301122,-21.20295)"><g
       class="st1"
       id="g3994"
       style="display:inline"><path
         class="st9"
         d="m 36.6,40.7 -7.1,-4.3 0.3,-0.1 7.1,4.3 -0.3,0.1 z"
         id="path3996"
         inkscape:connector-curvature="0"
         style="stroke:#000000;stroke-width:0.28349999;stroke-miterlimit:10" /></g></g><g
     class="st0"
     id="g3998"
     style="display:none"
     transform="translate(-14.301122,-21.20295)"><g
       class="st1"
       id="g4000"
       style="display:inline"><path
         class="st9"
         d="m 33.2,34.5 7.1,4.3 -0.3,0.1 -3.5,-2.1 -6.4,3.2 3.5,2.1 -0.3,0.1 -7,-4.2 0.3,-0.1 3.4,2 6.4,-3.3 -3.4,-2 0.2,-0.1 z"
         id="path4002"
         inkscape:connector-curvature="0"
         style="stroke:#000000;stroke-width:0.28349999;stroke-miterlimit:10" /></g></g><g
     class="st0"
     id="g4004"
     style="display:none"
     transform="translate(-14.301122,-21.20295)"><g
       class="st1"
       id="g4006"
       style="display:inline"><path
         class="st9"
         d="m 37.6,36.4 3.4,2 -0.3,0.1 -1.2,-0.7 c -0.1,0.9 -0.8,1.8 -2.1,2.4 -2.6,1.3 -6.2,1.1 -8,0 -1.8,-1.1 -1.8,-3 0.6,-4.3 1.9,-1 3.6,-1.1 5.1,-0.9 L 35,35.3 c -1.7,-0.2 -3.3,0.1 -4.7,0.8 -2.4,1.2 -2.2,3 -0.6,4 1.8,1.1 5.2,1.1 7.5,0 1.2,-0.6 2.4,-1.9 1.9,-2.6 l -1.5,-0.9 -2.2,1.1 -0.2,-0.1 2.4,-1.2 z"
         id="path4008"
         inkscape:connector-curvature="0"
         style="stroke:#000000;stroke-width:0.28349999;stroke-miterlimit:10" /></g></g><g
     class="st0"
     id="g4010"
     style="display:none"
     transform="translate(-14.301122,-21.20295)"><g
       class="st1"
       id="g4012"
       style="display:inline"><path
         class="st9"
         d="m 33.4,42.2 -7.1,-4.2 6,-3 0.2,0.1 -5.8,2.9 3.2,1.9 5,-2.5 0.2,0.1 -5,2.5 3.5,2.1 -0.2,0.1 z"
         id="path4014"
         inkscape:connector-curvature="0"
         style="stroke:#000000;stroke-width:0.28349999;stroke-miterlimit:10" /></g></g><g
     class="st0"
     id="g4016"
     style="display:none"
     transform="translate(-14.301122,-21.20295)"><g
       class="st1"
       id="g4018"
       style="display:inline"><path
         class="st9"
         d="m 39.2,39.1 0.2,0.1 -6.1,3.1 -7,-4.3 6,-3 0.2,0.1 -5.8,2.9 3.2,1.9 5,-2.5 0.2,0.1 -5,2.5 3.3,2 5.8,-2.9 z"
         id="path4020"
         inkscape:connector-curvature="0"
         style="stroke:#000000;stroke-width:0.28349999;stroke-miterlimit:10" /></g></g><g
     class="st0"
     id="g4022"
     style="display:none"
     transform="translate(-14.301122,-21.20295)"><g
       class="st1"
       id="g4024"
       style="display:inline"><path
         class="st9"
         d="m 33.4,42.2 -7.1,-4.2 3,-1.5 c 2.9,-1.5 5.9,-1.2 7.9,-0.1 2.1,1.3 1.9,3 -0.8,4.3 l -3,1.5 z m -4,-5.6 -2.7,1.4 6.7,4 2.7,-1.4 c 2.7,-1.4 2.6,-2.9 0.7,-4.1 -2,-1.1 -4.7,-1.2 -7.4,0.1 z"
         id="path4026"
         inkscape:connector-curvature="0"
         style="stroke:#000000;stroke-width:0.28349999;stroke-miterlimit:10" /></g></g><g
     class="st0"
     id="g4028"
     style="display:none"
     transform="translate(-14.301122,-21.20295)"><g
       class="st1"
       id="g4030"
       style="display:inline"><path
         class="st9"
         d="m 30.1,36 c 1.9,-1 3.6,-1.1 5.1,-0.9 L 35,35.3 c -1.7,-0.2 -3.3,0.1 -4.7,0.8 -2.4,1.2 -2.2,3 -0.6,4 1.8,1.1 5.2,1.1 7.5,0 1.1,-0.6 2.3,-1.9 1.9,-2.6 l 0.3,-0.1 c 0.5,0.9 -0.6,2.2 -2,2.8 -2.6,1.3 -6.2,1.1 -8,0 -1.8,-1 -1.8,-2.9 0.7,-4.2 z"
         id="path4032"
         inkscape:connector-curvature="0"
         style="stroke:#000000;stroke-width:0.28349999;stroke-miterlimit:10" /></g></g><g
     class="st0"
     id="g4034"
     style="display:none"
     transform="translate(-14.301122,-21.20295)"><g
       class="st1"
       id="g4036"
       style="display:inline"><path
         class="st9"
         d="m 37.6,39.8 -4.3,2.2 -7.1,-4.3 4.1,-2.1 c 1.3,-0.7 3,-0.5 3.9,0 0.7,0.4 0.8,1.1 0.3,1.7 1.3,-0.4 2.7,-0.3 3.5,0.2 1,0.6 0.9,1.6 -0.4,2.3 z m -10.9,-2.1 3.2,1.9 3.8,-1.9 c 1.1,-0.6 1.1,-1.5 0.3,-1.9 -0.8,-0.5 -2.3,-0.6 -3.5,0 l -3.8,1.9 z m 7.6,0 -4.1,2.1 3.3,2 4,-2 c 1.1,-0.6 1.2,-1.5 0.4,-2 -0.9,-0.7 -2.5,-0.7 -3.6,-0.1 z"
         id="path4038"
         inkscape:connector-curvature="0"
         style="stroke:#000000;stroke-width:0.28349999;stroke-miterlimit:10" /></g></g><g
     class="st0"
     id="g4040"
     style="display:none"
     transform="translate(-14.301122,-21.20295)"><g
       class="st1"
       id="g4042"
       style="display:inline"><path
         class="st9"
         d="m 32.7,42.3 -3,-6.3 0.2,-0.1 11.1,2.2 -0.3,0.1 -4,-0.8 -4.8,2.4 1.1,2.3 -0.3,0.2 z m -2.6,-6.2 1.7,3.6 4.6,-2.3 -6.3,-1.3 z"
         id="path4044"
         inkscape:connector-curvature="0"
         style="stroke:#000000;stroke-width:0.28349999;stroke-miterlimit:10" /></g></g><g
     inkscape:groupmode="layer"
     id="layer2"
     inkscape:label="pin"
     style="display:inline"
     transform="translate(-14.301122,-21.20295)"><path
       inkscape:connector-curvature="0"
       d="m 58.148471,37.879635 c 1.562336,0.677603 2.554394,2.32362 2.311658,4.077696 -0.291956,2.109728 -2.261372,3.604996 -4.383584,3.2857 l -17.458228,-2.626665 -3.290164,-0.429958 -0.01613,-0.0023 c -0.0066,-9.4e-4 -0.01286,-0.0019 -0.01969,-0.0029 -2.110496,-0.314118 -3.613308,-2.238705 -3.482319,-4.376157 0.0048,-0.10181 0.01244,-0.204382 0.02639,-0.307882 1.28e-4,-8.83e-4 4.1e-4,-0.002 5.26e-4,-0.003 0.306318,-2.263276 2.362702,-3.843614 4.582129,-3.524215 l 4.028963,0.57981 c 0,0 -0.332082,2.464212 -1.943704,2.232276 -1.611621,-0.231943 -2.309317,-1.169686 -3.112548,-1.285285 -1.611621,-0.231937 -1.833008,1.41087 -1.943525,2.230958 -2e-4,0.0014 -3.72e-4,0.0024 -5.28e-4,0.004 -0.08395,0.630322 0.177003,1.115012 0.716875,1.329366 0.714214,0.283652 1.808006,0.0157 2.641312,-1.223195 0.03982,-0.05891 0.08722,-0.10836 0.137638,-0.153362 0.01337,-0.01186 0.02698,-0.02219 0.04096,-0.03331 0.04363,-0.03358 0.08963,-0.0628 0.138129,-0.0863 0.01229,-0.0059 0.02386,-0.01368 0.03671,-0.01884 0.06102,-0.02604 0.123949,-0.04445 0.188723,-0.05456 0.01449,-0.0026 0.02889,-0.0026 0.04325,-0.0039 0.05533,-0.0058 0.110803,-0.0057 0.166554,1.81e-4 0.01004,10e-4 0.02022,-0.0015 0.03023,-2.9e-5 0.0064,9.41e-4 0.01156,0.0046 0.01802,0.0053 0.06616,0.0112 0.13151,0.02863 0.194698,0.05717 0.0086,0.004 0.01616,0.0093 0.02477,0.01362 0.0376,0.01849 0.07545,0.03733 0.111181,0.06256 0.01303,0.0088 0.02283,0.02071 0.03532,0.03053 0.01571,0.01234 0.0301,0.02543 0.04441,0.03855 0.04093,0.03771 0.07759,0.07782 0.109192,0.121214 0.008,0.01091 0.01762,0.02091 0.02501,0.03204 0.03793,0.05737 0.0675,0.118557 0.09001,0.182784 0.002,0.005 0.0059,0.0088 0.007,0.01409 l 1.059106,3.107377 13.90563,2.128777 c -0.397601,-0.708757 -0.579812,-1.543006 -0.460583,-2.404586 0.168913,-1.2206 0.900129,-2.225425 1.896525,-2.800272 0,0 -16.755098,-8.623418 -16.70838,-8.96101 0.0091,-0.06579 0.07117,-0.175518 0.0982,-0.239116 6.966181,2.734145 14.308061,6.278004 20.110265,9.002828 z m -3.854976,3.213461 c -0.175182,1.265899 0.719563,2.440874 1.994819,2.619602 1.275258,0.178725 2.45497,-0.705524 2.630153,-1.971422 0.175178,-1.265897 -0.719565,-2.440877 -1.994821,-2.6196 -1.275262,-0.178725 -2.454969,0.70552 -2.630151,1.97142 z"
       id="path3630"
       style="fill:#e60000;fill-opacity:1;stroke:none;stroke-width:0.60000002;stroke-miterlimit:4;stroke-dasharray:none;stroke-opacity:1"
       inkscape:transform-center-x="-5.3731474"
       inkscape:transform-center-y="1.3944184"
       sodipodi:nodetypes="ssscccccccscssccccccccccccccccccccccccsccccssssss"
       inkscape:export-xdpi="175"
       inkscape:export-ydpi="175" /></g></svg>